<?xml version="1.0" standalone="no"?>
<!DOCTYPE svg PUBLIC "-//W3C//DTD SVG 20010904//EN"
 "http://www.w3.org/TR/2001/REC-SVG-20010904/DTD/svg10.dtd">
<svg version="1.0" xmlns="http://www.w3.org/2000/svg"
 width="1480.000000pt" height="1355.000000pt" viewBox="0 0 1480.000000 1355.000000"
 preserveAspectRatio="xMidYMid meet">

<g transform="translate(0.000000,1355.000000) scale(0.100000,-0.100000)"
fill="#000000" stroke="none">
<path d="M9285 13355 c-16 -13 -37 -24 -46 -25 -19 0 -142 -74 -182 -109 -35
-31 -108 -132 -131 -181 -37 -81 -47 -149 -45 -326 1 -163 0 -175 -20 -200
-12 -15 -18 -31 -14 -35 4 -3 39 -3 77 2 38 5 72 7 76 4 4 -2 10 -31 13 -63 8
-75 15 -92 37 -92 24 0 34 -15 55 -90 18 -65 39 -100 51 -87 4 3 -3 41 -14 84
-21 77 -21 79 -3 133 10 31 22 74 26 98 5 32 12 43 28 47 96 19 591 85 596 78
67 -81 89 -123 101 -188 16 -93 18 -97 33 -92 9 3 11 29 8 100 -3 85 -1 97 13
97 15 0 16 8 10 59 l-6 59 48 7 c53 7 114 24 114 31 0 3 -18 22 -40 43 -22 21
-40 47 -40 59 0 11 -4 24 -10 27 -5 3 -10 14 -10 24 0 26 -63 209 -90 264 -42
84 -138 172 -240 219 -92 43 -108 48 -181 54 -38 4 -72 11 -75 15 -3 5 -29 9
-57 9 -40 0 -59 -6 -82 -25z m142 -57 c-3 -8 -6 -5 -6 6 -1 11 2 17 5 13 3 -3
4 -12 1 -19z m10 -40 c-3 -8 -6 -5 -6 6 -1 11 2 17 5 13 3 -3 4 -12 1 -19z
m10 -90 c-2 -13 -4 -5 -4 17 -1 22 1 32 4 23 2 -10 2 -28 0 -40z m20 -90 c-3
-7 -5 -2 -5 12 0 14 2 19 5 13 2 -7 2 -19 0 -25z m28 -89 c8 -35 19 -84 25
-108 6 -24 9 -48 8 -53 -4 -10 -58 199 -58 221 0 28 11 3 25 -60z m55 -234 c0
-31 37 -84 68 -97 22 -9 24 -12 9 -15 -39 -10 -98 81 -97 149 0 22 20 -14 20
-37z"/>
<path d="M6760 13288 c-205 -58 -395 -239 -440 -419 -19 -75 -30 -157 -45
-339 -8 -96 -24 -240 -35 -320 -20 -150 -20 -162 15 -245 41 -99 49 -116 63
-127 8 -7 18 -23 23 -35 5 -13 17 -26 26 -30 10 -4 41 -22 70 -40 29 -18 63
-33 77 -33 14 0 27 -4 30 -9 3 -4 35 22 72 58 l66 66 -4 52 c-4 42 -12 60 -46
101 -39 46 -102 158 -102 181 0 5 -14 19 -30 31 -17 12 -34 30 -40 40 -12 22
6 183 21 188 5 2 9 12 9 23 0 50 28 87 106 137 85 55 108 59 56 11 -18 -16
-32 -33 -32 -37 0 -3 5 -1 12 6 7 7 24 12 38 12 27 0 75 39 121 100 34 45 46
24 14 -24 -28 -42 -33 -65 -10 -46 9 7 28 14 43 15 59 5 185 113 223 192 22
46 49 57 49 21 0 -28 69 -156 121 -225 28 -38 39 -62 39 -88 0 -23 5 -35 14
-35 8 0 21 -33 36 -95 l23 -96 -31 -32 c-17 -18 -40 -60 -52 -95 -23 -71 -58
-132 -102 -178 -27 -28 -29 -35 -23 -80 5 -35 19 -67 49 -109 l43 -60 51 2
c106 5 165 61 209 201 58 184 70 318 38 427 -45 154 -68 250 -86 365 -47 288
-137 440 -294 494 -27 10 -61 24 -75 31 -93 48 -226 67 -310 43z m286 -450
c-11 -15 -16 -18 -16 -7 0 16 21 42 28 34 2 -2 -3 -14 -12 -27z m-26 -74 c0
-12 -121 -124 -133 -124 -7 0 20 29 58 65 73 68 75 69 75 59z"/>
<path d="M3970 13277 c-140 -27 -250 -105 -346 -247 -67 -98 -74 -113 -90
-179 -25 -105 -12 -224 31 -277 33 -41 55 -20 55 52 0 30 3 54 8 54 4 0 16
-13 26 -29 20 -29 76 -69 76 -54 0 4 -14 26 -30 47 -36 47 -31 60 8 23 37 -36
102 -63 113 -46 5 9 26 7 91 -10 45 -13 93 -27 105 -31 34 -14 35 1 1 32 -38
33 -37 33 29 8 55 -21 173 -43 182 -34 3 3 -5 14 -19 25 l-25 21 28 -7 c112
-24 163 -62 178 -135 4 -19 15 -60 23 -90 9 -30 15 -76 14 -102 -1 -26 1 -50
4 -54 7 -6 48 80 48 100 0 23 48 113 64 119 30 12 67 -11 84 -53 9 -22 20 -40
23 -40 9 0 28 95 40 198 19 171 -14 355 -83 465 -66 103 -206 196 -348 230
-93 23 -214 28 -290 14z"/>
<path d="M7008 12643 c-45 -7 -32 -20 20 -20 26 0 58 -3 72 -8 22 -7 23 -6 10
8 -17 17 -62 26 -102 20z"/>
<path d="M4084 12560 c-45 -18 -34 -28 25 -23 38 4 61 2 65 -6 9 -14 36 -15
36 0 0 12 -61 39 -87 38 -10 0 -28 -4 -39 -9z"/>
<path d="M3708 12529 c-10 -5 -18 -17 -18 -26 0 -14 3 -13 26 2 17 11 35 14
56 10 23 -6 29 -4 26 6 -6 17 -67 23 -90 8z"/>
<path d="M7001 12526 c-7 -8 -11 -30 -9 -48 2 -28 7 -33 28 -33 21 0 26 5 28
33 3 31 -11 62 -28 62 -4 0 -13 -6 -19 -14z"/>
<path d="M9633 12510 c-13 -5 -23 -14 -23 -19 0 -15 18 -23 25 -11 8 13 51 13
77 -1 29 -16 37 0 9 22 -25 20 -53 23 -88 9z"/>
<path d="M6647 12503 c-12 -11 -8 -58 7 -78 12 -16 16 -17 30 -6 19 16 21 62
4 79 -13 13 -31 16 -41 5z"/>
<path d="M9276 12437 c-18 -15 -26 -28 -22 -36 6 -9 14 -7 32 10 13 12 35 22
49 23 36 1 36 20 0 24 -20 2 -40 -6 -59 -21z"/>
<path d="M4107 12433 c-12 -11 -8 -68 5 -81 32 -32 71 17 50 63 -11 23 -40 33
-55 18z"/>
<path d="M6821 12408 c5 -18 9 -68 9 -110 0 -44 5 -80 11 -83 16 -11 23 3 10
19 -7 8 -11 36 -10 63 5 93 0 143 -15 143 -12 0 -13 -7 -5 -32z"/>
<path d="M3724 12405 c-15 -23 -15 -27 0 -51 23 -35 50 -28 54 14 3 32 -11 62
-29 62 -5 0 -16 -11 -25 -25z"/>
<path d="M3850 12326 c0 -51 -3 -107 -6 -123 -4 -23 0 -37 21 -61 15 -18 34
-32 42 -32 10 0 6 11 -16 35 -28 32 -30 40 -24 78 8 45 8 53 5 140 -3 96 -22
65 -22 -37z"/>
<path d="M1430 12387 c-174 -62 -273 -178 -305 -359 -20 -114 -18 -199 6 -293
12 -44 23 -90 26 -102 6 -28 20 -30 28 -4 3 11 27 39 53 62 37 35 47 40 50 27
3 -16 6 -16 26 -3 13 9 31 13 40 9 9 -3 16 -1 16 5 0 6 -7 11 -16 11 -30 0 -9
19 99 90 123 81 186 135 229 199 l31 44 32 -71 c18 -38 51 -96 72 -128 56 -82
73 -118 73 -153 0 -16 4 -32 9 -35 10 -7 21 16 21 44 0 9 7 23 15 30 12 10 20
9 41 -5 14 -9 28 -15 30 -12 12 12 25 130 20 183 -20 195 -131 371 -282 445
-60 30 -79 34 -159 36 -73 2 -102 -2 -155 -20z"/>
<path d="M9661 12386 c-14 -17 -5 -60 15 -77 18 -15 44 5 44 33 0 47 -35 73
-59 44z"/>
<path d="M9333 12349 c-13 -13 0 -69 19 -80 16 -10 38 9 38 33 0 45 -32 72
-57 47z"/>
<path d="M9460 12335 c0 -3 7 -22 15 -42 9 -20 15 -66 15 -107 0 -67 2 -74 30
-101 35 -34 38 -26 9 22 -15 25 -19 43 -15 67 6 30 -13 130 -29 156 -6 10 -25
14 -25 5z"/>
<path d="M9740 12028 c0 -18 -41 -61 -70 -74 -14 -7 -36 -17 -50 -23 -23 -10
-23 -11 8 -5 49 9 90 32 117 68 29 38 31 46 10 46 -8 0 -15 -6 -15 -12z"/>
<path d="M4106 12015 c-11 -8 -15 -15 -10 -15 6 0 19 7 30 15 10 8 15 14 9 14
-5 0 -19 -6 -29 -14z"/>
<path d="M3840 12012 c0 -22 34 -34 110 -39 44 -3 80 -2 80 3 0 5 -31 9 -68
10 -47 1 -76 6 -95 19 -15 9 -27 13 -27 7z"/>
<path d="M9390 11971 c0 -14 47 -41 83 -47 l32 -5 -40 21 c-22 11 -44 25 -49
30 -12 12 -26 13 -26 1z"/>
<path d="M12475 11938 c4 -13 24 -54 46 -92 31 -54 39 -79 39 -117 0 -37 4
-49 15 -49 11 0 15 12 15 50 0 43 3 50 20 50 21 0 35 33 28 67 -4 19 -132 113
-156 113 -9 0 -11 -7 -7 -22z"/>
<path d="M11910 11913 c-100 -65 -130 -94 -130 -124 0 -22 6 -32 24 -39 19 -7
27 -21 37 -64 7 -34 17 -56 26 -56 10 0 12 12 7 55 -6 49 -4 59 24 102 32 49
62 114 62 133 0 14 -21 12 -50 -7z"/>
<path d="M12358 11853 c-32 -8 -19 -20 30 -26 50 -5 62 -2 46 12 -12 13 -55
20 -76 14z"/>
<path d="M12040 11831 c-32 -26 -24 -32 31 -23 29 5 44 13 44 22 0 22 -47 23
-75 1z"/>
<path d="M9833 11808 c34 -154 36 -178 22 -271 -14 -89 -61 -253 -125 -434
-18 -48 -40 -119 -50 -158 -9 -38 -21 -70 -26 -72 -5 -2 -55 86 -111 195 -108
209 -158 341 -187 497 -31 165 -39 195 -51 195 -16 0 -126 -116 -151 -158 -17
-30 -94 -76 -189 -112 -272 -105 -313 -125 -439 -224 -44 -34 -103 -76 -131
-91 -27 -16 -73 -53 -102 -82 -29 -29 -54 -53 -57 -53 -3 0 -16 21 -29 48 -77
152 -142 211 -312 281 -11 5 -76 36 -145 69 -69 33 -137 64 -153 67 -15 4 -30
11 -33 16 -3 5 -12 9 -21 9 -15 0 -107 40 -194 85 l-47 24 33 -55 c37 -61 120
-262 112 -270 -3 -3 -33 4 -68 15 -34 12 -66 21 -70 21 -4 0 -10 -35 -14 -77
-17 -224 -46 -407 -107 -682 -35 -157 -38 -187 -27 -207 9 -18 10 -30 1 -49
-17 -37 -15 -49 13 -79 14 -15 25 -35 25 -46 0 -10 -11 -32 -25 -48 -30 -36
-31 -44 -5 -67 11 -10 20 -26 20 -35 0 -10 -9 -29 -20 -43 -11 -14 -20 -33
-20 -42 0 -28 -17 -51 -75 -95 -65 -50 -111 -64 -285 -86 l-125 -15 -91 -70
c-50 -38 -96 -69 -102 -69 -7 0 -12 9 -12 19 0 23 -53 177 -82 239 -12 23 -19
44 -17 45 2 2 30 20 62 40 63 41 137 104 137 118 0 19 102 219 126 248 34 41
92 74 194 111 46 17 85 32 88 34 2 2 -24 85 -58 183 -34 98 -72 210 -85 248
-13 39 -29 71 -37 73 -7 1 -45 -9 -83 -23 -43 -15 -73 -21 -79 -15 -11 11 -44
217 -48 305 -2 44 -7 65 -16 65 -16 0 -149 -37 -162 -45 -40 -25 -9 91 67 252
21 43 40 82 42 88 2 5 -20 -12 -49 -38 -29 -26 -112 -84 -183 -129 -128 -79
-166 -101 -357 -200 -52 -27 -108 -61 -123 -76 -36 -34 -68 -105 -82 -182 -4
-19 -11 -48 -15 -65 -53 -179 -177 -797 -219 -1090 -38 -264 -42 -337 -39
-602 3 -246 4 -263 24 -290 69 -94 214 -82 462 38 56 27 108 47 114 43 12 -8
6 -207 -12 -354 -6 -47 -17 -152 -25 -235 -8 -82 -22 -211 -30 -285 -16 -143
-15 -160 10 -160 8 0 15 -6 15 -12 1 -7 0 -89 -2 -183 -6 -408 11 -771 52
-1110 34 -280 41 -338 50 -405 5 -41 16 -127 25 -190 9 -63 20 -146 25 -185 5
-38 18 -137 29 -220 35 -261 41 -307 51 -444 5 -74 12 -136 15 -139 16 -16
281 -56 518 -77 407 -37 714 -14 1092 82 l70 18 12 125 c6 69 18 262 27 430
17 308 20 365 56 900 10 162 22 386 26 498 4 111 10 204 13 205 3 2 47 1 98
-1 l92 -4 16 -41 c10 -23 20 -70 23 -105 2 -34 8 -65 12 -67 13 -8 108 36 116
54 4 9 9 134 10 277 2 178 8 293 18 360 9 55 20 128 26 164 17 110 30 440 21
519 -9 75 -5 127 23 261 8 41 22 147 31 235 20 200 26 235 35 235 5 0 18 -33
30 -72 21 -67 22 -87 17 -243 -3 -93 -13 -258 -22 -365 -8 -107 -20 -260 -25
-340 -15 -215 -19 -234 -52 -238 -33 -4 -33 -6 -13 -127 9 -49 18 -104 21
-122 3 -18 9 -35 15 -38 5 -4 80 -1 167 5 86 6 224 15 306 21 93 7 152 7 158
1 13 -13 22 -177 14 -244 -8 -66 -48 -131 -99 -166 -31 -20 -36 -31 -52 -105
-41 -193 -85 -294 -162 -377 -67 -73 -145 -112 -225 -114 l-58 -1 0 -350 c0
-192 5 -627 10 -966 11 -658 3 -1044 -25 -1224 -17 -112 -20 -331 -6 -445 45
-359 55 -485 47 -660 -19 -454 -19 -463 -2 -521 9 -31 30 -78 47 -104 28 -44
29 -51 17 -73 -20 -38 -73 -91 -174 -175 -66 -54 -97 -87 -112 -121 -38 -80
-23 -184 32 -220 50 -32 162 -47 361 -49 155 -1 202 2 255 17 85 23 143 58
169 100 21 33 63 155 76 218 20 98 47 153 103 205 l55 52 -6 72 c-5 63 -3 78
15 107 21 34 21 41 24 846 3 809 6 972 24 1161 5 55 16 179 25 275 9 96 20
218 25 270 6 52 17 160 25 240 32 325 46 459 55 535 5 44 15 129 21 188 14
128 31 137 41 21 3 -43 11 -131 17 -194 23 -227 42 -427 51 -530 5 -58 17
-181 25 -275 25 -269 34 -388 45 -575 11 -190 24 -361 41 -540 19 -206 27
-391 28 -655 2 -406 15 -560 56 -636 8 -14 17 -44 21 -67 11 -72 39 -104 115
-131 24 -9 28 -18 38 -78 18 -108 41 -311 41 -356 0 -57 25 -136 53 -165 34
-37 95 -69 167 -88 82 -21 287 -25 345 -6 166 55 225 111 225 214 l0 55 185
12 c112 7 203 18 232 28 49 17 133 91 133 118 0 16 16 20 95 29 40 5 55 12 77
37 15 18 30 45 34 62 3 16 19 41 35 56 27 24 31 34 40 121 5 52 16 160 25 240
29 281 39 378 74 765 19 203 29 345 40 530 16 270 47 537 105 905 8 52 22 138
30 190 17 110 57 354 80 485 9 50 20 115 25 145 34 207 75 423 90 481 6 20 10
46 10 58 0 40 25 16 32 -30 7 -48 11 -69 57 -321 17 -92 35 -196 41 -230 5
-35 16 -108 25 -163 25 -157 61 -426 75 -550 20 -184 49 -500 60 -635 13 -175
24 -307 44 -500 30 -306 47 -631 55 -1055 5 -242 11 -447 15 -457 4 -9 15 -18
25 -21 14 -3 19 -18 24 -62 3 -32 12 -62 19 -66 7 -4 42 -11 78 -14 86 -8 112
-20 157 -67 66 -69 77 -71 274 -72 156 0 179 2 209 20 69 40 58 88 -32 135
-80 42 -226 183 -210 202 15 17 33 519 67 1837 9 322 20 686 25 810 29 718 32
864 25 1130 -3 157 -10 310 -13 340 -8 59 -5 58 -77 41 -247 -56 -306 -68
-445 -86 -333 -42 -593 -44 -860 -5 -164 23 -529 82 -666 107 -50 9 -99 13
-107 10 -15 -6 -16 -45 -11 -394 11 -845 7 -1882 -7 -2088 -10 -144 -14 -416
-14 -967 l0 -768 -90 -90 c-91 -93 -127 -120 -132 -104 -2 5 -28 45 -59 89
-32 44 -68 100 -82 125 -14 25 -34 59 -44 75 -24 40 -23 49 12 99 60 88 58 70
64 701 3 319 10 666 16 770 11 194 18 2890 7 2901 -3 3 -35 12 -72 21 -67 15
-67 15 -93 -9 -34 -31 -143 -98 -202 -123 -65 -29 -180 -27 -239 4 -79 41
-211 185 -211 230 0 12 58 41 84 41 8 0 17 -9 21 -19 3 -11 26 -40 52 -65 59
-60 90 -61 144 -7 24 24 39 48 39 63 0 58 -96 98 -183 77 -50 -12 -51 -11 -74
17 -28 36 -29 42 0 66 31 27 80 51 159 78 117 39 165 23 297 -102 31 -30 68
-61 83 -71 30 -19 186 -58 192 -48 5 8 -22 281 -29 300 -10 24 -34 277 -35
354 0 37 4 67 9 67 5 0 21 -53 36 -117 15 -65 31 -131 35 -148 4 -16 14 -59
21 -94 13 -69 27 -86 93 -120 84 -41 219 -47 308 -12 41 16 132 80 140 99 4
10 7 73 7 142 2 176 18 344 47 479 24 108 26 138 28 436 3 238 0 331 -9 365
-24 82 -26 142 -10 235 24 136 20 165 -135 885 -86 400 -138 630 -160 710 -6
19 -19 69 -29 110 -77 294 -135 435 -227 542 -41 47 -61 61 -119 83 -38 15
-79 30 -90 35 -11 5 -42 16 -70 25 -27 10 -59 21 -70 25 -43 18 -186 59 -310
89 -230 56 -215 49 -249 111 -48 88 -198 184 -183 118z m-3247 -1160 c46 -52
58 -132 25 -162 -10 -9 -31 -21 -47 -25 -16 -5 -113 -39 -217 -75 -149 -52
-192 -64 -212 -56 -29 11 -49 41 -66 98 -11 38 -10 45 7 69 13 17 45 35 90 51
38 13 130 46 204 72 156 55 188 60 216 28z"/>
<path d="M1593 11788 c-27 -13 -32 -34 -5 -22 34 15 94 17 103 3 4 -7 11 -10
15 -6 4 3 1 13 -6 22 -14 17 -74 19 -107 3z"/>
<path d="M12367 11733 c-14 -13 -7 -71 9 -77 24 -9 34 2 34 39 0 21 -6 35 -16
39 -19 7 -19 7 -27 -1z"/>
<path d="M12062 11718 c-16 -16 -15 -40 2 -64 14 -18 16 -18 32 -2 14 14 16
23 8 45 -11 31 -25 38 -42 21z"/>
<path d="M1626 11704 c-9 -8 -16 -19 -16 -22 0 -15 32 -52 45 -52 22 0 28 38
11 65 -19 29 -20 30 -40 9z"/>
<path d="M12205 11586 c0 -85 4 -119 14 -128 11 -11 13 -9 7 12 -4 14 -7 30
-6 35 10 72 9 163 -2 178 -11 15 -13 0 -13 -97z"/>
<path d="M1324 11656 c-9 -22 -1 -48 18 -60 27 -16 43 5 31 41 -11 31 -40 43
-49 19z"/>
<path d="M1461 11610 c0 -8 8 -42 19 -75 17 -54 19 -57 19 -25 0 34 -37 131
-38 100z"/>
<path d="M1993 11533 c-23 -50 -47 -81 -84 -107 -22 -15 -22 -17 -10 -118 17
-138 21 -158 36 -158 26 0 85 58 111 110 39 80 45 206 12 270 -13 24 -28 45
-33 47 -6 2 -20 -18 -32 -44z"/>
<path d="M1490 11442 c0 -5 7 -15 15 -22 8 -7 15 -9 15 -6 0 4 -7 14 -15 22
-8 9 -15 11 -15 6z"/>
<path d="M3940 11373 c-28 -24 -39 -41 -35 -52 4 -9 13 -37 20 -64 12 -46 11
-51 -31 -160 -80 -210 -174 -540 -205 -717 -32 -179 -62 -417 -83 -655 -30
-329 -36 -412 -51 -680 -8 -148 -20 -348 -25 -442 -6 -95 -10 -213 -10 -261 0
-86 1 -89 44 -159 56 -91 79 -122 90 -123 11 0 90 57 209 153 l99 80 -6 541
c-3 297 -9 727 -12 954 -6 446 7 988 31 1246 14 158 15 160 47 195 18 20 36
38 39 41 18 16 29 51 20 68 -13 24 -72 72 -88 72 -7 0 -31 -16 -53 -37z"/>
<path d="M1937 11094 c-3 -4 -4 -18 -1 -33 4 -22 -9 -40 -87 -121 -51 -52
-115 -122 -142 -155 -58 -69 -198 -277 -233 -347 -29 -58 -44 -68 -44 -31 2
121 21 277 44 348 25 79 36 202 17 190 -5 -3 -20 -40 -32 -81 -22 -74 -25 -78
-78 -112 -108 -68 -240 -173 -260 -206 -12 -19 -28 -37 -36 -40 -21 -8 -63
-112 -84 -206 -18 -81 -61 -397 -72 -528 -12 -148 -6 -254 23 -361 19 -70 21
-107 22 -461 l1 -385 -44 -130 c-23 -71 -47 -143 -51 -160 -4 -16 -29 -97 -54
-180 -25 -82 -46 -153 -46 -157 0 -11 194 -108 201 -100 4 4 21 75 39 157 18
83 36 166 40 185 12 58 62 245 66 249 2 2 12 -3 21 -11 57 -50 560 -60 903
-18 187 23 330 44 340 50 19 12 28 96 64 585 6 73 59 355 67 355 4 0 23 -62
44 -137 21 -76 62 -209 91 -295 29 -86 63 -198 75 -248 21 -84 21 -96 9 -158
-7 -37 -17 -76 -21 -87 -5 -11 -43 -107 -85 -214 l-76 -194 33 -30 c71 -63
210 -106 341 -107 16 0 56 75 138 256 l28 61 -19 194 c-10 107 -23 230 -28
274 -6 44 -8 283 -7 530 3 441 3 452 -21 565 -13 63 -27 135 -32 160 -66 325
-136 509 -256 674 -38 53 -54 65 -135 100 -343 147 -496 227 -580 302 -76 69
-74 67 -83 58z"/>
<path d="M11895 10975 c-57 -70 -51 -75 139 -125 61 -16 112 -34 114 -40 8
-22 62 -40 122 -40 60 0 91 10 118 37 7 7 29 13 47 13 43 0 161 27 186 43 24
15 24 27 -2 78 -26 49 -40 56 -71 35 -13 -8 -55 -27 -95 -41 -67 -25 -73 -26
-95 -11 -26 19 -81 21 -140 5 -42 -11 -47 -10 -150 40 -59 28 -113 51 -121 51
-8 0 -31 -20 -52 -45z"/>
<path d="M12572 10608 c-25 -25 -2 -78 33 -78 7 0 21 7 29 16 9 8 16 22 16 29
0 35 -53 58 -78 33z"/>
<path d="M11868 10589 c-26 -14 -24 -66 2 -74 11 -3 29 -3 40 0 27 9 27 60 1
75 -23 12 -22 12 -43 -1z"/>
<path d="M6979 10394 c-12 -14 -11 -16 5 -13 11 2 21 10 24 17 5 17 -13 15
-29 -4z"/>
<path d="M12562 9854 c-37 -26 -23 -74 23 -74 43 0 59 44 27 73 -23 21 -22 21
-50 1z"/>
<path d="M11882 9844 c-29 -20 -28 -50 3 -70 24 -16 27 -16 46 2 24 22 21 52
-6 70 -18 12 -24 11 -43 -2z"/>
<path d="M11890 9146 c-28 -34 11 -93 47 -70 32 20 39 41 19 63 -22 24 -49 27
-66 7z"/>
<path d="M12604 9139 c-20 -22 -13 -43 19 -63 39 -25 78 44 41 71 -25 18 -38
16 -60 -8z"/>
<path d="M12615 8460 c-37 -41 24 -97 63 -58 17 17 15 42 -6 61 -24 22 -35 21
-57 -3z"/>
<path d="M11905 8424 c-9 -9 -14 -23 -11 -31 3 -8 6 -16 6 -18 0 -3 9 -9 20
-15 27 -15 60 4 60 33 0 44 -44 62 -75 31z"/>
<path d="M2393 8336 c-48 -16 -54 -26 -43 -66 26 -89 62 -360 75 -569 l7 -104
34 39 c23 27 46 76 73 156 l39 117 -68 198 c-91 265 -79 242 -117 229z"/>
<path d="M12080 8200 c-115 -10 -201 -27 -215 -41 -11 -11 58 -6 164 12 167
28 631 -6 841 -63 41 -11 84 -23 95 -26 11 -3 26 -9 33 -15 9 -7 16 -7 23 0
25 25 -78 58 -311 102 -146 27 -484 44 -630 31z"/>
<path d="M11759 8008 c-14 -77 -28 -230 -29 -317 0 -221 36 -566 62 -582 17
-11 36 0 44 23 17 54 -2 701 -25 833 -5 31 -11 41 -29 43 -12 2 -22 2 -23 0z"/>
<path d="M3117 7938 c-10 -42 -8 -858 3 -1063 9 -183 14 -280 40 -765 13 -240
28 -459 41 -585 21 -219 40 -381 50 -445 14 -93 77 -488 94 -595 13 -84 31
-213 55 -400 32 -251 40 -451 40 -970 -1 -291 -5 -591 -11 -665 -5 -74 -12
-175 -15 -225 -6 -84 -9 -93 -41 -132 -66 -82 -227 -180 -426 -259 -124 -49
-159 -79 -155 -130 4 -51 35 -70 143 -91 129 -24 490 -24 597 0 143 32 233 75
345 166 l62 50 117 10 c64 6 122 16 130 22 18 14 19 180 3 263 -11 53 -11 58
10 77 11 11 21 30 21 42 1 12 7 87 15 167 17 168 40 1613 31 1924 -6 191 1
221 23 111 7 -33 28 -125 47 -205 48 -200 59 -244 94 -405 16 -77 35 -158 40
-180 5 -22 32 -148 60 -280 28 -132 55 -258 60 -280 5 -22 14 -65 21 -95 6
-30 22 -107 35 -170 40 -192 61 -310 74 -410 6 -52 18 -141 26 -196 8 -56 14
-112 14 -125 0 -13 7 -37 16 -54 14 -27 14 -33 -2 -75 -9 -25 -29 -67 -44 -95
-85 -154 -94 -179 -98 -253 -3 -58 -1 -77 12 -91 29 -32 127 -69 214 -81 112
-17 354 -9 404 13 46 20 117 85 165 151 21 28 60 78 88 111 28 33 56 73 63 88
18 43 24 125 14 197 -11 75 -8 86 20 93 21 6 21 9 15 174 -7 168 -20 269 -81
588 -49 256 -84 470 -126 775 -17 118 -34 240 -40 270 -5 30 -16 102 -25 160
-8 58 -19 128 -25 155 -5 28 -16 100 -25 160 -8 61 -20 133 -25 160 -21 111
-40 423 -50 820 -16 630 -30 1026 -36 1036 -3 5 -15 2 -27 -6 -12 -8 -33 -15
-48 -15 -44 0 -50 39 -20 125 l19 54 -45 17 c-35 14 -49 15 -62 6 -31 -23 -63
-32 -87 -26 -23 6 -25 10 -19 43 l6 36 -123 42 c-68 23 -195 67 -283 98 -88
31 -187 65 -220 77 -76 26 -80 30 -67 65 6 15 57 159 112 318 56 160 128 365
161 456 32 92 59 172 59 178 0 7 -14 10 -37 7 -114 -15 -176 -16 -190 -5 -11
10 -20 9 -43 -4 -25 -15 -55 -17 -229 -14 l-201 4 0 -64 c0 -35 -7 -80 -15
-100 l-15 -36 -103 5 c-118 5 -166 23 -192 71 -16 30 -18 100 -4 147 3 10 -9
16 -49 21 -29 4 -58 12 -66 18 -7 6 -20 9 -29 5 -13 -5 -115 10 -223 32 -27 5
-32 3 -37 -18z"/>
<path d="M5134 7944 c-6 -3 -47 -8 -90 -12 -43 -4 -78 -11 -77 -16 1 -5 44
-23 95 -40 51 -17 99 -35 106 -40 20 -12 25 -2 30 59 l4 55 -28 -1 c-16 0 -34
-3 -40 -5z"/>
<path d="M3576 7859 c-21 -31 -21 -83 1 -105 29 -28 79 -44 141 -44 69 0 79 8
88 71 10 71 -10 86 -122 94 -88 7 -92 6 -108 -16z"/>
<path d="M2660 7481 c0 -12 5 -21 10 -21 6 0 10 6 10 14 0 8 -4 18 -10 21 -5
3 -10 -3 -10 -14z"/>
<path d="M8624 7326 c-9 -24 0 -51 19 -54 15 -3 18 2 15 29 -3 35 -24 51 -34
25z"/>
<path d="M2678 7300 c-4 -8 -16 -40 -28 -70 -11 -30 -29 -69 -39 -87 -18 -29
-23 -31 -61 -26 -32 5 -45 1 -63 -15 -12 -11 -31 -22 -42 -24 -18 -3 -21 -21
-42 -268 -23 -284 -43 -473 -74 -720 -10 -85 -19 -158 -19 -162 0 -28 -189
-45 -600 -52 -371 -7 -652 8 -732 39 -17 7 -18 -4 -18 -136 0 -79 5 -243 11
-363 8 -184 13 -221 27 -232 26 -19 259 -91 367 -113 293 -60 552 -55 920 19
120 24 161 34 166 43 4 5 12 50 19 100 6 51 15 115 20 142 5 28 11 73 15 100
3 28 10 79 15 115 6 36 21 151 36 255 14 105 32 235 39 290 54 385 73 554 85
770 11 190 10 420 -2 395z"/>
<path d="M11575 6840 c3 -5 11 -10 16 -10 6 0 7 5 4 10 -3 6 -11 10 -16 10 -6
0 -7 -4 -4 -10z"/>
<path d="M2771 2588 c-52 -199 -74 -268 -106 -326 -74 -136 -218 -245 -263
-200 -15 15 -38 -5 -103 -93 -58 -78 -70 -120 -44 -149 26 -29 112 -27 209 5
151 49 199 96 265 260 55 138 100 215 124 215 6 0 21 -10 34 -22 l23 -22 31
30 c26 25 30 34 26 66 -8 59 -76 213 -109 247 -44 45 -73 42 -87 -11z"/>
<path d="M1970 2374 c0 -26 -9 -48 -32 -76 -36 -45 -145 -128 -228 -173 -51
-28 -61 -30 -150 -28 -52 1 -117 -3 -145 -9 -74 -16 -209 -83 -239 -119 -54
-63 -36 -70 195 -69 127 0 212 4 244 13 29 7 90 39 143 75 50 34 96 62 101 62
5 0 16 -11 25 -25 13 -20 25 -25 60 -25 47 0 76 22 76 56 0 11 5 25 11 31 20
20 22 133 4 203 -29 112 -65 158 -65 84z"/>
<path d="M7051 2056 c-16 -146 -50 -284 -92 -370 -46 -94 -69 -111 -163 -120
-93 -8 -128 4 -136 49 l-5 30 -21 -30 c-44 -64 -63 -102 -73 -144 -9 -42 -8
-46 21 -73 28 -26 36 -28 114 -28 189 0 274 78 325 301 15 65 31 107 53 138
29 41 31 49 34 147 3 77 0 116 -13 154 -9 27 -20 52 -24 55 -4 2 -13 -47 -20
-109z"/>
<path d="M7562 1906 c-15 -168 -40 -254 -87 -299 -85 -82 -265 -75 -265 11 0
38 -15 18 -45 -61 -14 -38 -25 -88 -25 -116 0 -66 21 -76 158 -75 99 2 171 14
218 36 30 14 50 63 64 154 6 43 16 106 22 139 20 109 21 193 2 263 -9 37 -20
70 -24 75 -4 4 -12 -53 -18 -127z"/>
</g>
</svg>
